<?xml version="1.0" encoding="utf-8"?>
<!-- Generator: Adobe Illustrator 26.0.3, SVG Export Plug-In . SVG Version: 6.00 Build 0)  -->
<svg version="1.1" id="Layer_1" xmlns="http://www.w3.org/2000/svg" xmlns:xlink="http://www.w3.org/1999/xlink" x="0px" y="0px"
	 viewBox="0 0 32 32" style="enable-background:new 0 0 32 32;" xml:space="preserve">
<style type="text/css">
	.st0{fill:#191919;}
</style>
<g>
	<path id="Logo_00000097475491406790991740000012835096310413710467_" class="st0" d="M21.6,13.1c0,0.1,0,0.3,0,0.4
		c0,3.8-2.9,8.3-8.2,8.3v0c-1.6,0-3.1-0.5-4.4-1.3c0.2,0,0.5,0,0.7,0c1.3,0,2.6-0.4,3.6-1.2c-1.2,0-2.3-0.8-2.7-2
		c0.4,0.1,0.9,0.1,1.3,0c-1.3-0.3-2.3-1.5-2.3-2.9c0,0,0,0,0,0c0.4,0.2,0.8,0.4,1.3,0.4c-1.3-0.9-1.7-2.6-0.9-3.9
		c1.5,1.8,3.6,3.7,5.9,3.9c-0.2-1,0.1-2.9,0.8-3.6c1.2-1.1,3-1,4.1,0.1c0.6-0.1,1.3-0.4,1.8-0.7c-0.2,0.7-0.7,1.2-1.3,1.6
		c0.6-0.1,1.1-0.2,1.6-0.5C22.6,12.2,22.1,12.7,21.6,13.1z"/>
	<path class="st0" d="M16,32C7.2,32,0,24.8,0,16S7.2,0,16,0s16,7.2,16,16S24.8,32,16,32z M16,1C7.7,1,1,7.7,1,16s6.7,15,15,15
		s15-6.7,15-15S24.3,1,16,1z"/>
</g>
</svg>
